+---------------------------------------------------+
|                     __                            |
|                 .-.'  '.-.                        |
|              ._(   \  /   )_.                     |
|             /   `..oOOo..'   \                    |
|             \.--.ooOOOOoo.--./                    |
|             (   :oOOOOOOo:   )                    |
|             /`--`ooOOOOoo`--`\                    |
|             \   .''oOOo''.   /                    |
|              `-(   /  \   )-'                     |
|                 `-'.__.'-`                        |
|                     ::                            |
|                     ::.                           |
|                  |  `::     |                     |
|                  |----------|                     |
|                  | c o  l a |                     |
|                  |----------|                     |
|                  |   ::     |                     |
|                  |   ::     |                     |
|                  |__________|                     |
+---------------------------------------------------+
