+---------------------------------------------------+
|                    _______                        |
|                    |_|_|_|                        |
|                    |     |                        |
|                   /       \                       |
|                  /         \                      |
|                  |          |                     |
|                  |          |                     |
|                  |----------|                     |
|                  | c o  l a |                     |
|                  |----------|                     |
|                  |          |                     |
|                  |          |                     |
|                  |          |                     |
|                  |          |                     |
|                  |__________|                     |
|     ________________      ________________        |
|    (__((________))__)    (__((________))__)       |
|      |            |        |            |         |
|      |   trash    |        |  recycle   |         |
+---------------------------------------------------+
