+---------------------------------------------------+
|          |    /\     // | \\     /       \        |
|          |   /  \   //     \\   /     /\  \       |
|          |  /  /\\_//       \\ /     /c \  \      |
|          | /   \/ //    |    \\      \ i \  \     |
|__________|/  /\  //     |     \\      \ i \  \    |
|____  ____ \  \.\//             \\      \ y \  \   |
|\___\ \___\ \  \//               \\   /\ \   \  \  |
|_____________\_//                 \\ /  \ \ m \  \ |
|______________ /         |         \\ . /\ \ a \  \|
|             //          |          \\ /. \ \ l \  |
|---   ---   //           |           \\  /   \ l/  |
|           //                         \\/     \/  /|
|__________//                           \\        / |
|_________ /                             \\      /  |
|        //               |               \\    /   |
|       //                |                \\__/____|
|      //                 |                 \\      |
|     //                  |                  \\-- --|
|    //                                       \\    |
+---------------------------------------------------+
